{
  "articles": [
    {
      "id": 1,
      "name": "water",
      "price": 100
    },
    {
      "id": 2,
      "name": "honey",
      "price": 200
    }
  ],
  "carts": [
    {
      "id": 1,
      "items": [
        {
          "article_id": 1,
          "quantity": 6
        },
        {
          "article_id": 2,
          "quantity": 2
        }
      ]
    }
  ],
  "delivery_fees": [
    {
      "eligible_transaction_volume": {
        "min_price": 0,
        "max_price": 1000
      },
      "price": 800
    },
    {
      "eligible_transaction_volume": {
        "min_price": 1000,
        "max_price": 2000
      },
      "price": 400
    },
    {
      "eligible_transaction_volume": {
        "min_price": 2000,
        "max_price": null
      },
      "price": 0
    }
  ]
}