{
  "articles": [
    {
      "id": 1,
      "name": "water",
      "price": 100
    },
    {
      "id": 2,
      "name": "honey",
      "price": 200
    }
  ],
  "carts": [
    {
      "id": 1,
      "items": [
        {
          "article_id": 1,
          "quantity": 6
        },
        {
          "article_id": 2,
          "quantity": 2
        }
      ]
    }
  ],
  "delivery_fees": [],
  "discounts": []
}